[
    {
        "pk": 5, 
        "model": "auth.user", 
        "fields": {
            "username": "turk_laura", 
            "first_name": "Laura", 
            "last_name": "Moises de Delgado", 
            "is_active": true, 
            "is_superuser": false, 
            "is_staff": false, 
            "last_login": "2012-10-29T01:35:57.234Z", 
            "groups": [], 
            "user_permissions": [], 
            "password": "", 
            "email": "turk_laura@hotmail.com", 
            "date_joined": "2012-10-29T01:35:57.234Z"
        }
    }, 
    {
        "pk": 4, 
        "model": "auth.user", 
        "fields": {
            "username": "susanita", 
            "first_name": "Susanita", 
            "last_name": "Acacia", 
            "is_active": true, 
            "is_superuser": false, 
            "is_staff": false, 
            "last_login": "2012-10-28T23:08:53.816Z", 
            "groups": [], 
            "user_permissions": [], 
            "password": "", 
            "email": "susanita@argentina.com", 
            "date_joined": "2012-10-28T23:08:53.816Z"
        }
    }, 
    {
        "pk": 3, 
        "model": "auth.user", 
        "fields": {
            "username": "juanc", 
            "first_name": "Juan", 
            "last_name": "Casulo", 
            "is_active": true, 
            "is_superuser": false, 
            "is_staff": false, 
            "last_login": "2012-10-28T23:05:50.555Z", 
            "groups": [], 
            "user_permissions": [], 
            "password": "", 
            "email": "juanc@latinmail.com", 
            "date_joined": "2012-10-28T23:05:50.555Z"
        }
    }
]
